module app.gamesight.io/v1alpha1

go 1.17

require (
	github.com/Innervate/secret-sync-operator v0.0.0-20200903231803-7006d7395f97
	github.com/go-openapi/spec v0.19.1-0.20190416154047-9d9763c0ce87
	github.com/operator-framework/operator-sdk v0.7.0
	github.com/spf13/pflag v1.0.3
	k8s.io/api v0.0.0-20181213150558-05914d821849
	k8s.io/apimachinery v0.0.0-20181127025237-2b1284ed4c93
	k8s.io/client-go v0.0.0-20181213151034-8d9ed539ba31
	k8s.io/kube-openapi v0.0.0-20180711000925-0cf8f7e6ed1d
	sigs.k8s.io/controller-runtime v0.1.10
)

require (
	cloud.google.com/go v0.37.4 // indirect
	contrib.go.opencensus.io/exporter/ocagent v0.4.12 // indirect
	github.com/Azure/go-autorest v12.0.0+incompatible // indirect
	github.com/PuerkitoBio/purell v1.1.1 // indirect
	github.com/PuerkitoBio/urlesc v0.0.0-20170810143723-de5bf2ad4578 // indirect
	github.com/appscode/jsonpatch v0.0.0-20190108182946-7c0e3b262f30 // indirect
	github.com/beorn7/perks v1.0.0 // indirect
	github.com/census-instrumentation/opencensus-proto v0.2.0 // indirect
	github.com/coreos/prometheus-operator v0.29.0 // indirect
	github.com/davecgh/go-spew v1.1.1 // indirect
	github.com/dgrijalva/jwt-go v3.2.0+incompatible // indirect
	github.com/emicklei/go-restful v2.9.3+incompatible // indirect
	github.com/go-logr/logr v0.1.0 // indirect
	github.com/go-logr/zapr v0.1.1 // indirect
	github.com/go-openapi/jsonpointer v0.19.0 // indirect
	github.com/go-openapi/jsonreference v0.19.0 // indirect
	github.com/go-openapi/swag v0.19.0 // indirect
	github.com/gogo/protobuf v1.2.1 // indirect
	github.com/golang/groupcache v0.0.0-20190129154638-5b532d6fd5ef // indirect
	github.com/golang/protobuf v1.3.1 // indirect
	github.com/google/btree v1.0.0 // indirect
	github.com/google/gofuzz v1.0.0 // indirect
	github.com/google/uuid v1.1.1 // indirect
	github.com/googleapis/gnostic v0.2.0 // indirect
	github.com/gophercloud/gophercloud v0.0.0-20190423165001-666dacaccf07 // indirect
	github.com/gregjones/httpcache v0.0.0-20190212212710-3befbb6ad0cc // indirect
	github.com/grpc-ecosystem/grpc-gateway v1.8.5 // indirect
	github.com/hashicorp/golang-lru v0.5.1 // indirect
	github.com/imdario/mergo v0.3.7 // indirect
	github.com/json-iterator/go v1.1.6 // indirect
	github.com/mailru/easyjson v0.0.0-20190403194419-1ea4449da983 // indirect
	github.com/matttproud/golang_protobuf_extensions v1.0.1 // indirect
	github.com/modern-go/concurrent v0.0.0-20180306012644-bacd9c7ef1dd // indirect
	github.com/modern-go/reflect2 v0.0.0-20180701023420-4b7aa43c6742 // indirect
	github.com/pborman/uuid v0.0.0-20180906182336-adf5a7427709 // indirect
	github.com/peterbourgon/diskv v2.0.1+incompatible // indirect
	github.com/pkg/errors v0.8.1 // indirect
	github.com/prometheus/client_golang v0.9.3-0.20190127221311-3c4408c8b829 // indirect
	github.com/prometheus/client_model v0.0.0-20190129233127-fd36f4220a90 // indirect
	github.com/prometheus/common v0.3.0 // indirect
	github.com/prometheus/procfs v0.0.0-20190416084830-8368d24ba045 // indirect
	github.com/stretchr/testify v1.3.0 // indirect
	go.opencensus.io v0.20.2 // indirect
	go.uber.org/atomic v1.3.2 // indirect
	go.uber.org/multierr v1.1.0 // indirect
	go.uber.org/zap v1.9.1 // indirect
	golang.org/x/crypto v0.0.0-20190422183909-d864b10871cd // indirect
	golang.org/x/net v0.0.0-20190420063019-afa5a82059c6 // indirect
	golang.org/x/oauth2 v0.0.0-20190402181905-9f3314589c9a // indirect
	golang.org/x/sync v0.0.0-20190911185100-cd5d95a43a6e // indirect
	golang.org/x/sys v0.0.0-20190422165155-953cdadca894 // indirect
	golang.org/x/text v0.3.1-0.20180807135948-17ff2d5776d2 // indirect
	golang.org/x/time v0.0.0-20190308202827-9d24e82272b4 // indirect
	google.golang.org/api v0.3.2 // indirect
	google.golang.org/appengine v1.5.0 // indirect
	google.golang.org/genproto v0.0.0-20190418145605-e7d98fc518a7 // indirect
	google.golang.org/grpc v1.20.1 // indirect
	gopkg.in/check.v1 v1.0.0-20190902080502-41f04d3bba15 // indirect
	gopkg.in/inf.v0 v0.9.1 // indirect
	gopkg.in/yaml.v2 v2.2.2 // indirect
	k8s.io/apiextensions-apiserver v0.0.0-20181213153335-0fe22c71c476 // indirect
	k8s.io/klog v0.3.0 // indirect
	sigs.k8s.io/testing_frameworks v0.1.2 // indirect
	sigs.k8s.io/yaml v1.1.0 // indirect
)
